com/indev/radex/agent/behavior/BehaviorExecutor.class
com/indev/radex/agent/test/BuyerAgent.class
com/indev/radex/directoryservice/service/AgentDirectoryMatcher.class
com/indev/radex/directoryservice/service/DFDescriptionValidator.class
com/indev/radex/agent/behavior/OnMessageReceivedBehaviorConfig.class
com/indev/radex/directoryservice/TransportDescriptionConverter.class
radex-js/ams_service-proxy.js
radex-js/df_service-proxy.js
com/indev/radex/messageservice/message/ACLContentManager.class
com/indev/radex/ams/registry/AMSAgentRegistry.class
com/indev/radex/communication/sl/SLEncoder.class
com/indev/radex/directoryservice/operation/ActionStatusConverter.class
com/indev/radex/directoryservice/operation/ActionStatus.class
com/indev/radex/directoryservice/TransportDescription.class
com/indev/radex/messageservice/MessageTransportServiceVertxProxyHandler.class
radex-js/message_transport_service-proxy.js
com/indev/radex/agent/behavior/CyclicBehaviorConfig.class
com/indev/radex/messageservice/MessageTransportServiceVertxEBProxy.class
com/indev/radex/platform/ServiceBuilder.class
com/indev/radex/agent/AID.class
com/indev/radex/agent/behavior/Behavior.class
com/indev/radex/directoryservice/service/DFServiceVertxEBProxy.class
com/indev/radex/agent/behavior/BehaviorConfiguration.class
com/indev/radex/directoryservice/operation/ActionStatusCodec.class
com/indev/radex/messageservice/DefaultMessageTransportService.class
com/indev/radex/directoryservice/service/DefaultDFService.class
com/indev/radex/communication/sl/SLBuilder.class
com/indev/radex/agent/behavior/SequentialBehaviorConfig.class
com/indev/radex/ams/service/package-info.class
com/indev/radex/directoryservice/ServiceDescriptionConverter.class
com/indev/radex/directoryservice/package-info.class
com/indev/radex/directoryservice/service/DFServiceVertxProxyHandler.class
com/indev/radex/messageservice/package-info.class
com/indev/radex/agent/package-info.class
com/indev/radex/directoryservice/service/DFNotMatching.class
com/indev/radex/directoryservice/TransportType.class
com/indev/radex/messageservice/message/CreateAgentAction.class
com/indev/radex/messageservice/MessageTransportService.class
com/indev/radex/ams/AgentPlatformDescription.class
com/indev/radex/directoryservice/service/StringPropertyMatcher.class
com/indev/radex/messageservice/message/ACLMessage.class
com/indev/radex/messageservice/Performative.class
radex-ts/message_transport_service-proxy.ts
radex-ts/df_service-proxy.ts
com/indev/radex/messageservice/message/ACLMessageConverter.class
com/indev/radex/messageservice/message/SLAction.class
com/indev/radex/ams/operation/AMSKillAgentOperation.class
com/indev/radex/agent/test/SequentialBehavior.class
com/indev/radex/Launcher.class
com/indev/radex/ams/operation/AMSOperation.class
radex-ts/ams_service-proxy.ts
com/indev/radex/messageservice/content/TextCodec.class
com/indev/radex/ams/AMS.class
com/indev/radex/platform/APVerticle.class
com/indev/radex/agent/AIDConverter.class
com/indev/radex/ams/response/AMSResponseBuilder.class
com/indev/radex/agent/test/ServiceRoot.class
com/indev/radex/messageservice/content/Codec.class
com/indev/radex/directoryservice/service/SetPropertyMatcher.class
com/indev/radex/agent/behavior/BehaviorConfigurationFactory.class
com/indev/radex/ams/registry/AMSAgentDescription.class
com/indev/radex/ams/service/DefaultAMSService.class
com/indev/radex/agent/behavior/BehaviorContext.class
com/indev/radex/agent/test/SellerAgent.class
com/indev/radex/directoryservice/ServiceDescription.class
com/indev/radex/directoryservice/service/PropertyMatcher.class
com/indev/radex/ams/service/AMSServiceVertxProxyHandler.class
com/indev/radex/ams/operation/AMSOperationFactory.class
com/indev/radex/ams/operation/AMSCreateAgentOperation.class
com/indev/radex/ams/AgentLifecycleState.class
com/indev/radex/ams/service/AMSServiceVertxEBProxy.class
com/indev/radex/agent/AIDCodec.class
com/indev/radex/ams/service/AMSService.class
com/indev/radex/agent/lifecycle/AgentCommunication.class
com/indev/radex/directoryservice/service/DFService.class
com/indev/radex/agent/lifecycle/AgentConfigurator.class
com/indev/radex/directoryservice/service/DFDescriptionConverter.class
com/indev/radex/agent/lifecycle/AbstractAgent.class
com/indev/radex/messageservice/message/ACLMessageCodec.class
com/indev/radex/directoryservice/service/DFDescription.class
