/Users/elmahdibenzekri/ProjectPro/radex/discoveryservice/src/main/java/com/indev/radex/messageservice/message/SLAction.java
/Users/elmahdibenzekri/ProjectPro/radex/discoveryservice/src/main/java/com/indev/radex/directoryservice/ServiceDescription.java
/Users/elmahdibenzekri/ProjectPro/radex/discoveryservice/src/main/java/com/indev/radex/directoryservice/operation/ActionStatusCodec.java
/Users/elmahdibenzekri/ProjectPro/radex/discoveryservice/src/main/java/com/indev/radex/ams/operation/AMSCreateAgentOperation.java
/Users/elmahdibenzekri/ProjectPro/radex/discoveryservice/src/main/java/com/indev/radex/directoryservice/service/DFService.java
/Users/elmahdibenzekri/ProjectPro/radex/discoveryservice/src/main/java/com/indev/radex/messageservice/message/CreateAgentAction.java
/Users/elmahdibenzekri/ProjectPro/radex/discoveryservice/src/main/java/com/indev/radex/agent/lifecycle/AgentCommunication.java
/Users/elmahdibenzekri/ProjectPro/radex/discoveryservice/src/main/java/com/indev/radex/agent/test/BuyerAgent.java
/Users/elmahdibenzekri/ProjectPro/radex/discoveryservice/src/main/java/com/indev/radex/ams/AgentPlatformDescription.java
/Users/elmahdibenzekri/ProjectPro/radex/discoveryservice/src/main/java/com/indev/radex/ams/response/AMSResponseBuilder.java
/Users/elmahdibenzekri/ProjectPro/radex/discoveryservice/src/main/java/com/indev/radex/directoryservice/service/DefaultDFService.java
/Users/elmahdibenzekri/ProjectPro/radex/discoveryservice/src/main/java/com/indev/radex/ams/registry/AMSAgentRegistry.java
/Users/elmahdibenzekri/ProjectPro/radex/discoveryservice/src/main/java/com/indev/radex/communication/sl/SLBuilder.java
/Users/elmahdibenzekri/ProjectPro/radex/discoveryservice/src/main/java/com/indev/radex/ams/service/AMSService.java
/Users/elmahdibenzekri/ProjectPro/radex/discoveryservice/src/main/java/com/indev/radex/Launcher.java
/Users/elmahdibenzekri/ProjectPro/radex/discoveryservice/src/main/java/com/indev/radex/agent/test/SellerAgent.java
/Users/elmahdibenzekri/ProjectPro/radex/discoveryservice/src/main/java/com/indev/radex/messageservice/content/TextCodec.java
/Users/elmahdibenzekri/ProjectPro/radex/discoveryservice/src/main/java/com/indev/radex/communication/sl/SLEncoder.java
/Users/elmahdibenzekri/ProjectPro/radex/discoveryservice/src/main/java/com/indev/radex/agent/lifecycle/AbstractAgent.java
/Users/elmahdibenzekri/ProjectPro/radex/discoveryservice/src/main/java/com/indev/radex/agent/behavior/BehaviorExecutor.java
/Users/elmahdibenzekri/ProjectPro/radex/discoveryservice/src/main/java/com/indev/radex/ams/service/package-info.java
/Users/elmahdibenzekri/ProjectPro/radex/discoveryservice/src/main/java/com/indev/radex/ams/operation/AMSOperation.java
/Users/elmahdibenzekri/ProjectPro/radex/discoveryservice/src/main/java/com/indev/radex/agent/behavior/BehaviorConfigurationFactory.java
/Users/elmahdibenzekri/ProjectPro/radex/discoveryservice/src/main/java/com/indev/radex/ams/AMS.java
/Users/elmahdibenzekri/ProjectPro/radex/discoveryservice/src/main/java/com/indev/radex/directoryservice/package-info.java
/Users/elmahdibenzekri/ProjectPro/radex/discoveryservice/src/main/java/com/indev/radex/messageservice/content/Codec.java
/Users/elmahdibenzekri/ProjectPro/radex/discoveryservice/src/main/java/com/indev/radex/directoryservice/service/AgentDirectoryMatcher.java
/Users/elmahdibenzekri/ProjectPro/radex/discoveryservice/src/main/java/com/indev/radex/agent/test/ServiceRoot.java
/Users/elmahdibenzekri/ProjectPro/radex/discoveryservice/src/main/java/com/indev/radex/messageservice/message/ACLMessage.java
/Users/elmahdibenzekri/ProjectPro/radex/discoveryservice/src/main/java/com/indev/radex/messageservice/message/ACLContentManager.java
/Users/elmahdibenzekri/ProjectPro/radex/discoveryservice/src/main/java/com/indev/radex/ams/AgentLifecycleState.java
/Users/elmahdibenzekri/ProjectPro/radex/discoveryservice/src/main/java/com/indev/radex/directoryservice/service/DFDescription.java
/Users/elmahdibenzekri/ProjectPro/radex/discoveryservice/src/main/java/com/indev/radex/messageservice/package-info.java
/Users/elmahdibenzekri/ProjectPro/radex/discoveryservice/src/main/java/com/indev/radex/ams/operation/AMSKillAgentOperation.java
/Users/elmahdibenzekri/ProjectPro/radex/discoveryservice/src/main/java/com/indev/radex/ams/operation/AMSOperationFactory.java
/Users/elmahdibenzekri/ProjectPro/radex/discoveryservice/src/main/java/com/indev/radex/messageservice/message/ACLMessageCodec.java
/Users/elmahdibenzekri/ProjectPro/radex/discoveryservice/src/main/java/com/indev/radex/agent/package-info.java
/Users/elmahdibenzekri/ProjectPro/radex/discoveryservice/src/main/java/com/indev/radex/directoryservice/TransportDescription.java
/Users/elmahdibenzekri/ProjectPro/radex/discoveryservice/src/main/java/com/indev/radex/agent/AIDCodec.java
/Users/elmahdibenzekri/ProjectPro/radex/discoveryservice/src/main/java/com/indev/radex/platform/APVerticle.java
/Users/elmahdibenzekri/ProjectPro/radex/discoveryservice/src/main/java/com/indev/radex/agent/AID.java
/Users/elmahdibenzekri/ProjectPro/radex/discoveryservice/src/main/java/com/indev/radex/agent/lifecycle/AgentConfigurator.java
/Users/elmahdibenzekri/ProjectPro/radex/discoveryservice/src/main/java/com/indev/radex/messageservice/Performative.java
/Users/elmahdibenzekri/ProjectPro/radex/discoveryservice/src/main/java/com/indev/radex/directoryservice/TransportType.java
/Users/elmahdibenzekri/ProjectPro/radex/discoveryservice/src/main/java/com/indev/radex/ams/registry/AMSAgentDescription.java
/Users/elmahdibenzekri/ProjectPro/radex/discoveryservice/src/main/java/com/indev/radex/messageservice/MessageTransportService.java
/Users/elmahdibenzekri/ProjectPro/radex/discoveryservice/src/main/java/com/indev/radex/directoryservice/operation/ActionStatus.java
/Users/elmahdibenzekri/ProjectPro/radex/discoveryservice/src/main/java/com/indev/radex/directoryservice/service/DFDescriptionValidator.java
/Users/elmahdibenzekri/ProjectPro/radex/discoveryservice/src/main/java/com/indev/radex/messageservice/DefaultMessageTransportService.java
/Users/elmahdibenzekri/ProjectPro/radex/discoveryservice/src/main/java/com/indev/radex/directoryservice/service/DFNotMatching.java
/Users/elmahdibenzekri/ProjectPro/radex/discoveryservice/src/main/java/com/indev/radex/ams/service/DefaultAMSService.java
/Users/elmahdibenzekri/ProjectPro/radex/discoveryservice/src/main/java/com/indev/radex/agent/behavior/BehaviorContext.java
/Users/elmahdibenzekri/ProjectPro/radex/discoveryservice/src/main/java/com/indev/radex/agent/test/SequentialBehavior.java
/Users/elmahdibenzekri/ProjectPro/radex/discoveryservice/src/main/java/com/indev/radex/agent/behavior/BehaviorConfiguration.java
/Users/elmahdibenzekri/ProjectPro/radex/discoveryservice/src/main/java/com/indev/radex/agent/behavior/Behavior.java
/Users/elmahdibenzekri/ProjectPro/radex/discoveryservice/src/main/java/com/indev/radex/platform/ServiceBuilder.java
